…
Points

games_played %>%
  group_by(year,owner) %>%
  summarise(total_points = sum(points)) %>%
  ungroup() %>%
  group_by(owner) %>%
  arrange(desc(total_points)) %>%
  mutate(owner_rank = row_number()) %>%
  arrange(owner_rank)

## # A tibble: 118 x 4
## # Groups:   owner [13]
##     year owner        total_points owner_rank
##    <dbl> <chr>               <dbl>      <int>
##  1  2018 Hartman             1726.          1
##  2  2011 Shokunbi            1615.          1
##  3  2015 Harrington          1581.          1
##  4  2013 Ready               1577.          1
##  5  2018 Skrzyszewski        1574.          1
##  6  2009 Regan               1494           1
##  7  2011 Olson               1478           1
##  8  2018 Harris              1476.          1
##  9  2018 Higdon              1476.          1
## 10  2009 McShane             1439           1
## # … with 108 more rows
…
